{
  "project_info": {
    "project_number": "819776571304",
    "firebase_url": "https://healthsoft-25f6a.firebaseio.com",
    "project_id": "healthsoft-25f6a",
    "storage_bucket": "healthsoft-25f6a.appspot.com"
  },
  "client": [
    {
      "client_info": {
        "mobilesdk_app_id": "1:819776571304:android:be7c59668df0cedb85ff9d",
        "android_client_info": {
          "package_name": "com.teme.healthsoft"
        }
      },
      "oauth_client": [
        {
          "client_id": "819776571304-mivk3ki8iqgu68gmjgvlu70ipjilg4pt.apps.googleusercontent.com",
          "client_type": 3
        }
      ],
      "api_key": [
        {
          "current_key": "AIzaSyCAUnDEcY5fqBHXMojY6J-RGJt9tECJV7o"
        }
      ],
      "services": {
        "appinvite_service": {
          "other_platform_oauth_client": [
            {
              "client_id": "819776571304-mivk3ki8iqgu68gmjgvlu70ipjilg4pt.apps.googleusercontent.com",
              "client_type": 3
            }
          ]
        }
      }
    }
  ],
  "configuration_version": "1"
}